{
    "KPlugin": {
        "Description": "Swap Page Effect",
        "Description[ca@valencia]": "Efecte d'agranat de pàgina",
        "Description[ca]": "Efecte d'escombrat de pàgina",
        "Description[eo]": "Paĝ-Interŝanĝa Efekto",
        "Description[es]": "Efecto de página de intercambio",
        "Description[gl]": "Efecto para as páxinas de intercambio.",
        "Description[it]": "Effetto di scambio delle pagine",
        "Description[nl]": "Pagina-omwisselen-effect",
        "Description[sl]": "Učinek zamenjave strani",
        "Description[tr]": "Sayfa Takası Efekti",
        "Description[uk]": "Ефект перегортання сторінки",
        "Description[x-test]": "xxSwap Page Effectxx",
        "Id": "kpr_pageeffect_swapeffect",
        "Name": "Swap Effect",
        "Name[ca@valencia]": "Efecte d'agranat",
        "Name[ca]": "Efecte d'escombrat",
        "Name[eo]": "Interŝanĝa Efekto",
        "Name[es]": "Efecto de intercambio",
        "Name[gl]": "Efecto de intercambio",
        "Name[it]": "Effetto di scambio",
        "Name[nl]": "Omwissel-effect",
        "Name[sl]": "Učinek zamenjave",
        "Name[tr]": "Takas Efekti",
        "Name[uk]": "Ефект перегортання",
        "Name[x-test]": "xxSwap Effectxx",
        "ServiceTypes": [
            "CalligraStage/PageEffect"
        ]
    },
    "X-KPresenter-Version": "28"
}
