{
    "KPlugin": {
        "Authors": [
            {
                "Email": "sven.langkamp@gmail.com",
                "Name": "Sven Langkamp",
                "Name[ca@valencia]": "Sven Langkamp",
                "Name[ca]": "Sven Langkamp",
                "Name[cs]": "Sven Langkamp",
                "Name[de]": "Sven Langkamp",
                "Name[el]": "Sven Langkamp",
                "Name[en_GB]": "Sven Langkamp",
                "Name[eo]": "Sven Langkamp",
                "Name[es]": "Sven Langkamp",
                "Name[et]": "Sven Langkamp",
                "Name[eu]": "Sven Langkamp",
                "Name[fi]": "Sven Langkamp",
                "Name[fr]": "Sven Langkamp",
                "Name[gl]": "Sven Langkamp",
                "Name[ia]": "Sven Langkamp",
                "Name[id]": "Sven Langkamp",
                "Name[it]": "Sven Langkamp",
                "Name[ka]": "Sven Langkamp",
                "Name[ko]": "Sven Langkamp",
                "Name[nl]": "Sven Langkamp",
                "Name[pl]": "Sven Langkamp",
                "Name[pt]": "Sven Langkamp",
                "Name[pt_BR]": "Sven Langkamp",
                "Name[ru]": "Sven Langkamp",
                "Name[sk]": "Sven Langkamp",
                "Name[sl]": "Sven Langkamp",
                "Name[sv]": "Sven Langkamp",
                "Name[tr]": "Sven Langkamp",
                "Name[uk]": "Sven Langkamp",
                "Name[x-test]": "xxSven Langkampxx",
                "Name[zh_CN]": "Sven Langkamp"
            },
            {
                "Email": "kossebau@kde.org",
                "Name": "Friedrich W. H. Kossebau",
                "Name[ca@valencia]": "Friedrich W. H. Kossebau",
                "Name[ca]": "Friedrich W. H. Kossebau",
                "Name[cs]": "Friedrich W. H. Kossebau",
                "Name[de]": "Friedrich W. H. Kossebau",
                "Name[el]": "Friedrich W. H. Kossebau",
                "Name[en_GB]": "Friedrich W. H. Kossebau",
                "Name[eo]": "Friedrich W. H. Kossebau",
                "Name[es]": "Friedrich W. H. Kossebau",
                "Name[et]": "Friedrich W. H. Kossebau",
                "Name[eu]": "Friedrich W. H. Kossebau",
                "Name[fi]": "Friedrich W. H. Kossebau",
                "Name[fr]": "Friedrich W. H. Kossebau",
                "Name[gl]": "Friedrich W. H. Kossebau",
                "Name[ia]": "Friedrich W. H. Kossebau",
                "Name[id]": "Friedrich W. H. Kossebau",
                "Name[it]": "Friedrich W. H. Kossebau",
                "Name[ka]": "ფრიდრიჰ კოსებაუ",
                "Name[ko]": "Friedrich W. H. Kossebau",
                "Name[nl]": "Friedrich W. H. Kossebau",
                "Name[pl]": "Friedrich W. H. Kossebau",
                "Name[pt]": "Friedrich W. H. Kossebau",
                "Name[pt_BR]": "Friedrich W. H. Kossebau",
                "Name[ru]": "Friedrich W. H. Kossebau",
                "Name[sk]": "Friedrich W. H. Kossebau",
                "Name[sl]": "Friedrich W. H. Kossebau",
                "Name[sv]": "Friedrich W. H. Kossebau",
                "Name[tr]": "Friedrich W. H. Kossebau",
                "Name[uk]": "Friedrich W. H. Kossebau",
                "Name[x-test]": "xxFriedrich W. H. Kossebauxx",
                "Name[zh_CN]": "Friedrich W. H. Kossebau"
            }
        ],
        "Copyright": "Copyright 2012-2016 Sven Langkamp, Friedrich W. H. Kossebau",
        "Copyright[ca@valencia]": "Copyright 2012-2016 Sven Langkamp, Friedrich W. H. Kossebau",
        "Copyright[ca]": "Copyright 2012-2016 Sven Langkamp, Friedrich W. H. Kossebau",
        "Copyright[cs]": "Autorská práva 2012-2016 Sven Langkamp, Friedrich W. H. Kossebau",
        "Copyright[de]": "Copyright 2012-2016 Sven Langkamp, Friedrich W. H. Kossebau",
        "Copyright[el]": "Copyright 2012-2016 Sven Langkamp, Friedrich W. H. Kossebau",
        "Copyright[en_GB]": "Copyright 2012-2016 Sven Langkamp, Friedrich W. H. Kossebau",
        "Copyright[eo]": "Kopirajto 2012-2016 Sven Langkamp, Friedrich W. H. Kossebau",
        "Copyright[es]": "Copyright 2012-2016 Sven Langkamp, Friedrich W. H. Kossebau",
        "Copyright[et]": "Autoriõigus 2012-2016: Sven Langkamp, Friedrich W. H. Kossebau",
        "Copyright[eu]": "Copyright 2012-2016 Sven Langkamp, Friedrich W. H. Kossebau",
        "Copyright[fi]": "Copyright 2012–2016 Sven Langkamp, Friedrich W. H. Kossebau",
        "Copyright[fr]": "Copyright 2012-2016 Sven Langkamp, Friedrich W. H. Kossebau",
        "Copyright[gl]": "© 2012-2016 Sven Langkamp, Friedrich W. H. Kossebau",
        "Copyright[ia]": "Copyright 2012-2016 Sven Langkamp, Friedrich W. H. Kossebau",
        "Copyright[id]": "Hakcipta 2012-2016 Sven Langkamp, Friedrich W. H. Kossebau",
        "Copyright[it]": "Copyright 2012-2016 Sven Langkamp, Friedrich W. H. Kossebau",
        "Copyright[ka]": "Copyright 2012-2016 Sven Langkamp, Friedrich W. H. Kossebau",
        "Copyright[ko]": "Copyright 2012-2016 Sven Langkamp, Friedrich W. H. Kossebau",
        "Copyright[nl]": "Copyright 2012-2016 Sven Langkamp, Friedrich W. H. Kossebau",
        "Copyright[pl]": "Copyright 2012-2016 Sven Langkamp, Friedrich W. H. Kossebau",
        "Copyright[pt]": "Copyright 2012-2016 Sven Langkamp, Friedrich W. H. Kossebau",
        "Copyright[pt_BR]": "Copyright 2012-2016 Sven Langkamp, Friedrich W. H. Kossebau",
        "Copyright[ru]": "© Sven Langkamp, Friedrich W. H. Kossebau, 2012-2016",
        "Copyright[sk]": "Copyright 2012-2016 Sven Langkamp, Friedrich W. H. Kossebau",
        "Copyright[sl]": "Copyright 2012-2016 Sven Langkamp, Friedrich W. H. Kossebau",
        "Copyright[sv]": "Copyright 2012-2016 Sven Langkamp, Friedrich W. H. Kossebau",
        "Copyright[tr]": "Telif hakkı 2012-2016 Sven Langkamp, Friedrich W. H. Kossebau",
        "Copyright[uk]": "© Sven Langkamp, Friedrich W. H. Kossebau, 2012–2016",
        "Copyright[x-test]": "xxCopyright 2012-2016 Sven Langkamp, Friedrich W. H. Kossebauxx",
        "Copyright[zh_CN]": "Copyright 2012-2016 Sven Langkamp, Friedrich W. H. Kossebau",
        "Description": "OpenDocument Text file renderer",
        "Description[ca@valencia]": "Representació de fitxers de text en OpenDocument",
        "Description[ca]": "Representació de fitxers de text en OpenDocument",
        "Description[cs]": "Vykreslovač souborů OpenDocument",
        "Description[de]": "Renderer für OpenDocument-Text-Dokumente",
        "Description[el]": "Άρθρωμα αποτύπωσης αρχείου κειμένου OpenDocument",
        "Description[en_GB]": "OpenDocument Text file renderer",
        "Description[eo]": "OpenDocument Tekstdosiera bildigilo",
        "Description[es]": "Motor de visualización para archivos de texto de OpenDocument",
        "Description[et]": "OpenDocumenti tekstifaili renderdaja",
        "Description[eu]": "OpenDocument testu-fitxategi errendatzailea",
        "Description[fi]": "OpenDocument Text -tiedostohahmonnin",
        "Description[fr]": "Rendu de fichiers de texte OpenDocument",
        "Description[gl]": "Renderizador de ficheiros de texto de OpenDocument.",
        "Description[id]": "Perender file Teks OpenDocument",
        "Description[it]": "Presentatore file OpenDocument Text",
        "Description[ka]": "OpenDocument Text ფაილის რენდერერი",
        "Description[ko]": "OpenDocument 텍스트 파일 렌더러",
        "Description[nl]": "OpenDocument tekstbestandsweergave",
        "Description[pl]": "Wyświetlanie pliku tekstowego OpenDocument",
        "Description[pt]": "Visualizador de ficheiros de Texto em OpenDocument",
        "Description[pt_BR]": "Renderização de arquivos de Texto OpenDocument",
        "Description[ru]": "Средство визуализации текстовых файлов формата OpenDocument",
        "Description[sk]": "Zobrazovač textov OpenDocument",
        "Description[sl]": "Prikazovalnik besedilnih datotek OpenDocument",
        "Description[sv]": "OpenDocument textfilåtergivning",
        "Description[tr]": "OpenDocument Metin dosyası sunucusu",
        "Description[uk]": "Засіб показу вмісту файлів ODT",
        "Description[x-test]": "xxOpenDocument Text file rendererxx",
        "Description[zh_CN]": "OpenDocument 文本文件渲染器",
        "Id": "okularGenerator_odt_calligra",
        "License": "GPL",
        "MimeTypes": [
            "application/vnd.oasis.opendocument.text",
            "application/vnd.oasis.opendocument.text-template"
        ],
        "Name": "ODT Backend",
        "Name[ca@valencia]": "Dorsal d'ODT",
        "Name[ca]": "Dorsal d'ODT",
        "Name[cs]": "Podpůrná vrstva ODT",
        "Name[de]": "ODT-Backend",
        "Name[el]": "Σύστημα υποστήριξης ODT",
        "Name[en_GB]": "ODT Backend",
        "Name[eo]": "ODT-Backend",
        "Name[es]": "Motor ODT",
        "Name[et]": "ODT taustaprogramm",
        "Name[eu]": "ODT bizkarraldekoa",
        "Name[fi]": "ODT-taustaosa",
        "Name[fr]": "Moteur ODT",
        "Name[gl]": "Motor de ODT",
        "Name[ia]": "Retro-Administration de ODT",
        "Name[id]": "Backend ODT",
        "Name[it]": "Motore ODT",
        "Name[ka]": "ODT -ის უკანაბოლო",
        "Name[ko]": "ODT 백엔드",
        "Name[nl]": "ODT-backend",
        "Name[pl]": "Silnik ODT",
        "Name[pt]": "Infra-Estrutura para ODT",
        "Name[pt_BR]": "Infraestrutura ODT",
        "Name[ru]": "Модуль поддержки формата ODT",
        "Name[sk]": "ODT Backend",
        "Name[sl]": "Zaledje ODT",
        "Name[sv]": "ODT-gränssnitt",
        "Name[tr]": "ODT Arka Ucu",
        "Name[uk]": "Модуль обробки ODT",
        "Name[x-test]": "xxODT Backendxx",
        "Name[zh_CN]": "ODT 后端",
        "ServiceTypes": [
            "okular/Generator"
        ],
        "Version": "2.99.5"
    },
    "X-KDE-Priority": 1,
    "X-KDE-okularAPIVersion": 1,
    "X-KDE-okularHasInternalSettings": false
}
