{
    "KPlugin": {
        "Description": "Bar Wipe Page Effect",
        "Description[ca@valencia]": "Efecte d'esborrat de barra de la pàgina",
        "Description[ca]": "Efecte d'esborrat de barra de la pàgina",
        "Description[eo]": "Bret-Viŝa Paĝ-Efekto",
        "Description[es]": "Efecto de página de borrado de barras",
        "Description[gl]": "Efecto para as páxinas de varrido con barras.",
        "Description[it]": "Effetto di transizione a barre delle pagine",
        "Description[nl]": "Balkvegen pagina-effect",
        "Description[sl]": "Učinek zavese s stolpcem strani",
        "Description[tr]": "Çubuk Sil Sayfa Efekti",
        "Description[uk]": "Ефект пластинчастого витирання",
        "Description[x-test]": "xxBar Wipe Page Effectxx",
        "Id": "kpr_pageeffect_barwipe",
        "Name": "Bar Wipe",
        "Name[ca@valencia]": "Esborrat de barra",
        "Name[ca]": "Esborrat de barra",
        "Name[eo]": "Bretviŝo",
        "Name[es]": "Borrado de barras",
        "Name[gl]": "Varrido con barras",
        "Name[it]": "Transizione a barre",
        "Name[nl]": "Balkvegen",
        "Name[sl]": "Zavesa - stolpec",
        "Name[tr]": "Çubuk Sil",
        "Name[uk]": "Пластинчасте витирання",
        "Name[x-test]": "xxBar Wipexx",
        "ServiceTypes": [
            "CalligraStage/PageEffect"
        ]
    },
    "X-KPresenter-Version": "28"
}
