{
    "KPlugin": {
        "Name": "CSV Export Filter for Calligra Sheets",
        "Name[ca@valencia]": "Filtre d'exportació CSV per a Calligra Sheets",
        "Name[ca]": "Filtre d'exportació CSV per al Calligra Sheets",
        "Name[cs]": "Exportní filtr CSV pro Calligra Sheets",
        "Name[eo]": "CSV Eksporta Filtrilo por Calligra Sheets",
        "Name[es]": "Filtro de exportación CSV para Calligra Sheets",
        "Name[fr]": "Filtre d'exportation « CSV » pour Calligra Sheets",
        "Name[gl]": "Filtro para Calligra Sheets de exportación de CSV",
        "Name[it]": "Filtro di esportazione CSV per Calligra Sheets",
        "Name[ka]": "CSV-ის გატანის ფილტრი Calligra Sheets-სთვის",
        "Name[nl]": "CSV-exportfilter voor Calligra Sheets",
        "Name[sl]": "Filter izvoza za Calligra Sheets",
        "Name[tr]": "Calligra Tablolar için Dışa Aktarma Süzgeci",
        "Name[uk]": "Фільтр експорту CSV для Calligra Sheets",
        "Name[x-test]": "xxCSV Export Filter for Calligra Sheetsxx",
        "ServiceTypes": [
            "Calligra/Filter"
        ]
    },
    "X-KDE-Export": "text/csv,text/plain",
    "X-KDE-Import": "application/vnd.oasis.opendocument.spreadsheet",
    "X-KDE-Weight": 50
}
