{
    "KPlugin": {
        "Name": "Karbon Whirl Pinch plugin",
        "Name[ca@valencia]": "Connector de gira i pessiga de Karbon",
        "Name[ca]": "Connector de gira i pessiga del Karbon",
        "Name[eo]": "Karbon Whirl Pinch kromaĵo",
        "Name[es]": "Complemento girar al pellizcar de Karbon",
        "Name[gl]": "Complemento para Karbon de xiro e picada",
        "Name[it]": "Estensione Vortice e Pizzico di Karbon",
        "Name[nl]": "Plug-in voor Whirl Pinch van Karbon",
        "Name[sl]": "Vtičnik Karbon Whirl Pinch",
        "Name[tr]": "Karbon Çimdikleyip Döndür Eklentisi",
        "Name[uk]": "Додаток вихору для Karbon",
        "Name[x-test]": "xxKarbon Whirl Pinch pluginxx",
        "ServiceTypes": [
            "Karbon/ViewPlugin"
        ]
    },
    "X-Karbon-Version": "28"
}
