{
    "KPlugin": {
        "Name": "Karbon Refine Path plugin",
        "Name[ca@valencia]": "Connector de refinament de camins de Karbon",
        "Name[ca]": "Connector de refinament de camins del Karbon",
        "Name[eo]": "Karbon Refine Path kromaĵo",
        "Name[es]": "Complemento refinar ruta de Karbon",
        "Name[gl]": "Complemento de ruta refinada para Karbon",
        "Name[it]": "Estensione Regolazione percorsi di Karbon",
        "Name[ka]": "Karbon -ის ბილიკის დაზუსტების დამატება",
        "Name[nl]": "Plug-in voor pad van Karbon Refine",
        "Name[sl]": "Vtičnik Karbon Refine Path",
        "Name[tr]": "Karbon Yolu Rafine Et Eklentisi",
        "Name[uk]": "Додаток покращення контурів для Karbon",
        "Name[x-test]": "xxKarbon Refine Path pluginxx",
        "ServiceTypes": [
            "Karbon/ViewPlugin"
        ]
    },
    "X-Karbon-Version": "28"
}
