{
    "KPlugin": {
        "Name": "Karbon PDF Import Filter",
        "Name[ca@valencia]": "Filtre d'importació PDF de Karbon",
        "Name[ca]": "Filtre d'importació PDF del Karbon",
        "Name[cs]": "Importní filtr PDF pro Karbon",
        "Name[eo]": "Karbon PDF-Importfiltrilo",
        "Name[es]": "Filtro de importación PDF de Karbon",
        "Name[fr]": "Filtre d'importation « PDF » de Karbon",
        "Name[gl]": "Filtro para Karbon de importación de PDF",
        "Name[it]": "Filtro di importazione PDF per Karbon",
        "Name[ka]": "Karbon PDF შემოტანის ფილტრი",
        "Name[nl]": "PDF-importfilter voor Karbon",
        "Name[sl]": "Karbon filter uvoza PDF",
        "Name[tr]": "Karbon PDF İçe Aktarma Süzgeci",
        "Name[uk]": "Фільтр імпортування PDF до Karbon",
        "Name[x-test]": "xxKarbon PDF Import Filterxx",
        "ServiceTypes": [
            "Calligra/Filter"
        ]
    },
    "X-KDE-Export": "image/svg+xml",
    "X-KDE-Import": "application/pdf",
    "X-KDE-Weight": 1
}
