{
    "KPlugin": {
        "Name": "KSpread dBASE Import Filter",
        "Name[ca@valencia]": "Filtre d'importació dBASE de KSpread",
        "Name[ca]": "Filtre d'importació dBASE del KSpread",
        "Name[cs]": "Importní filtr dBASE pro KSpread",
        "Name[eo]": "KSpread dBASE Importfiltrilo",
        "Name[es]": "Filtro de importación dBASE de KSpread",
        "Name[fr]": "Filtre d'importation « dBASE » de KSpread",
        "Name[gl]": "Filtro para KSpread de importación de dBASE",
        "Name[it]": "Filtro di importazione dBASE per KSpread",
        "Name[ka]": "KSpread dBASE -ის შემოტანის ფილტრი",
        "Name[nl]": "dBASE-importfilter voor KSpread",
        "Name[sl]": "KSpread filter uvoza dBASE",
        "Name[tr]": "KSpread dBASE İçe Aktarma Süzgeci",
        "Name[uk]": "Фільтр імпортування dBASE для KSpread",
        "Name[x-test]": "xxKSpread dBASE Import Filterxx",
        "ServiceTypes": [
            "Calligra/Filter"
        ]
    },
    "X-KDE-Export": "application/x-kspread",
    "X-KDE-Import": "application/x-dbf",
    "X-KDE-Weight": 1
}
