{
    "KPlugin": {
        "Name": "Karbon EPS Import Filter",
        "Name[ca@valencia]": "Filtre d'importació EPS de Karbon",
        "Name[ca]": "Filtre d'importació EPS del Karbon",
        "Name[cs]": "Importní filtr do formátu EPS pro Karbon",
        "Name[eo]": "Karbon EPS-Importfiltrilo",
        "Name[es]": "Filtro de importación EPS de Karbon",
        "Name[fr]": "Filtre d'importation « EPS » de Karbon",
        "Name[gl]": "Filtro para Karbon de importación de EPS",
        "Name[it]": "Filtro di importazione EPS per Karbon",
        "Name[ka]": "Karbon EPS შემოტანის ფილტრი",
        "Name[nl]": "EPS-importfilter voor Karbon",
        "Name[sl]": "Karbon filter uvoza EPS",
        "Name[tr]": "Karbon EPS İçe Aktarma Süzgeci",
        "Name[uk]": "Фільтр експорту EPS для Karbon",
        "Name[x-test]": "xxKarbon EPS Import Filterxx",
        "ServiceTypes": [
            "Calligra/Filter"
        ]
    },
    "X-KDE-Export": "image/svg+xml,application/illustrator",
    "X-KDE-Import": "image/x-eps,image/eps,application/eps,application/x-eps,application/postscript",
    "X-KDE-Weight": 1
}
