{
    "KPlugin": {
        "Name": "Words ASCII Export Filter",
        "Name[ca@valencia]": "Filtre d'exportació ASCII de Words",
        "Name[ca]": "Filtre d'exportació ASCII del Words",
        "Name[cs]": "Exportní filtr formátu ASCII pro Words",
        "Name[eo]": "Words ASCII Eksporta Filtrilo",
        "Name[es]": "Filtro de exportación ASCII de Words",
        "Name[fr]": "Filtre d'exportation « ASCII » de Words",
        "Name[gl]": "Filtro para Words de exportación de ASCII",
        "Name[it]": "Filtro di esportazione ASCII per Words",
        "Name[ka]": "Words ASCII -ის გატანის ფილტრი",
        "Name[nl]": "ASCII-exportfilter voor Words",
        "Name[sl]": "Words ASCII filter izvoza",
        "Name[tr]": "Sözcükler ASCII Dışa Aktarma Süzgeci",
        "Name[uk]": "Фільтр імпортування даних ASCII для Words",
        "Name[x-test]": "xxWords ASCII Export Filterxx",
        "ServiceTypes": [
            "Calligra/Filter"
        ]
    },
    "X-KDE-Export": "text/plain",
    "X-KDE-Import": "application/vnd.oasis.opendocument.text",
    "X-KDE-Weight": 1
}
