{
    "KPlugin": {
        "Description": "Slide Wipe Page Effect",
        "Description[ca@valencia]": "Efectes d'esborrat de diapositiva de la pàgina",
        "Description[ca]": "Efectes d'esborrat de diapositiva de la pàgina",
        "Description[eo]": "Glit-Viŝa Paĝ-Efekto",
        "Description[es]": "Efecto de página de borrado deslizante",
        "Description[gl]": "Efecto para as páxinas de varrido de diapositiva.",
        "Description[it]": "Effetto di transizione a inserimento delle pagine",
        "Description[nl]": "Diavegen pagina-effect",
        "Description[sl]": "Učinek zavese z drsenjem strani",
        "Description[tr]": "Slayt Sil Sayfa Efekti",
        "Description[uk]": "Ефект ковзного витирання сторінки",
        "Description[x-test]": "xxSlide Wipe Page Effectxx",
        "Id": "kpr_pageeffect_slidewipe",
        "Name": "Slide Wipe",
        "Name[ca@valencia]": "Esborrat de diapositiva",
        "Name[ca]": "Esborrat de diapositiva",
        "Name[eo]": "Glit-Viŝo",
        "Name[es]": "Borrado deslizante",
        "Name[gl]": "Varrido de diapositiva",
        "Name[it]": "Transizione a inserimento",
        "Name[nl]": "Diavegen",
        "Name[sl]": "Zavesa - drsenje",
        "Name[tr]": "Slayt Sil",
        "Name[uk]": "Ковзне витирання",
        "Name[x-test]": "xxSlide Wipexx",
        "ServiceTypes": [
            "CalligraStage/PageEffect"
        ]
    },
    "X-KPresenter-Version": "28"
}
