{
    "KPlugin": {
        "Id": "commentshape",
        "Name": "Comment Shape",
        "Name[ca]": "Forma de comentaris",
        "Name[es]": "Forma de comentario",
        "Name[gl]": "Obxecto de comentario",
        "Name[ka]": "კომენტარის ფორმა",
        "Name[nl]": "Vorm voor commentaar",
        "Name[sl]": "Oblika komentarja",
        "Name[tr]": "Yorum Şekli",
        "Name[uk]": "Форма-коментар",
        "Name[x-test]": "xxComment Shapexx",
        "ServiceTypes": [
            "Calligra/Shape"
        ]
    },
    "X-Flake-MinVersion": "28",
    "X-Flake-PluginVersion": "28"
}
