{
    "KPlugin": {
        "Name": "ODT to Epub2 Export Filter",
        "Name[ca@valencia]": "Filtre d'exportació ODT a Epub2",
        "Name[ca]": "Filtre d'exportació ODT a Epub2",
        "Name[eo]": "ODT al Epub2 Eksporta Filtrilo",
        "Name[es]": "Filtro de exportación ODT a Epub2",
        "Name[fr]": "Filtre d'exportation du format « ODT » vers « ePub2 »",
        "Name[gl]": "Filtro de exportacións de ODT a Epub2",
        "Name[it]": "Filtro di esportazione da ODT a Epub2",
        "Name[ka]": "ODT -დან Epub2 -ში გატანის ფილტრი",
        "Name[nl]": "ODT naar Epub2 exportfilter",
        "Name[sl]": "Filter izvoza ODT v Epub2",
        "Name[tr]": "ODT-Epub2 Dışa Aktarma Süzgeci",
        "Name[uk]": "Фільтр експорту ODT до Epub2",
        "Name[x-test]": "xxODT to Epub2 Export Filterxx",
        "ServiceTypes": [
            "Calligra/Filter"
        ]
    },
    "X-KDE-Export": "application/epub+zip",
    "X-KDE-Import": "application/vnd.oasis.opendocument.text",
    "X-KDE-Weight": 1
}
