{
    "KPlugin": {
        "Name": "OpenOffice.org Calc Export Filter for KSpread",
        "Name[ca@valencia]": "Filtre d'exportació OpenOffice.org Calc per a KSpread",
        "Name[ca]": "Filtre d'exportació OpenOffice.org Calc per al KSpread",
        "Name[cs]": "OpenOffice.org Calc exportní filtr pro KSpread",
        "Name[eo]": "OpenOffice.org Calc Eksporta Filtrilo por KSpread",
        "Name[es]": "Filtro de exportación OpenOffice.org Calc para KSpread",
        "Name[fr]": "Filtre d'exportation « OpenOffice.org Calc » pour KSpread",
        "Name[gl]": "Filtro para KSpread de exportación de OpenOffice.org Calc",
        "Name[it]": "Filtro di esportazione OpenOffice.org Calc per KSpread",
        "Name[ka]": "OpenOffice.org Calc -ის გატანის ფილტრი KSpread-სთვის",
        "Name[nl]": "OpenOffice.org Calc-exportfilter voor KSpread",
        "Name[sl]": "OpenOffice.org Calc filter izvoza za KSpread",
        "Name[tr]": "KSpread için Apache OpenOffice Calc Dışa Aktarma Süzgeci",
        "Name[uk]": "Фільтр експорту OpenOffice.org Calc для KSpread",
        "Name[x-test]": "xxOpenOffice.org Calc Export Filter for KSpreadxx",
        "ServiceTypes": [
            "Calligra/Filter"
        ]
    },
    "X-KDE-Export": "application/vnd.sun.xml.calc",
    "X-KDE-Import": "application/x-kspread",
    "X-KDE-Weight": 1
}
