{
    "KPlugin": {
        "Name": "HTML Export Filter for KSpread",
        "Name[ca@valencia]": "Filtre d'exportació HTML per a KSpread",
        "Name[ca]": "Filtre d'exportació HTML per al KSpread",
        "Name[cs]": "HTML exportní filtr pro KSpread",
        "Name[eo]": "HTML-Eksporta Filtrilo por KSpread",
        "Name[es]": "Filtro de exportación HTML para KSpread",
        "Name[fr]": "Filtre d'exportation « HTML » de KSpread",
        "Name[gl]": "Filtro para KSpread de exportación de HTML",
        "Name[it]": "Filtro di esportazione HTML per KSpread",
        "Name[ka]": "HTML -ის გატანის ფილტრი KSpread-სთვის",
        "Name[nl]": "HTML-exportfilter voor KSpread",
        "Name[sl]": "HTML filter izvoza za KSpread",
        "Name[tr]": "KSpread için HTML Dışa Aktarma Süzgeci",
        "Name[uk]": "Фільтр експорту HTML для KSpread",
        "Name[x-test]": "xxHTML Export Filter for KSpreadxx",
        "ServiceTypes": [
            "Calligra/Filter"
        ]
    },
    "X-KDE-Export": "text/html",
    "X-KDE-Import": "application/x-kspread",
    "X-KDE-Weight": 50
}
