{
    "KPlugin": {
        "Name": "HTML Import Filter for KSpread",
        "Name[ca@valencia]": "Filtre d'importació HTML per a KSpread",
        "Name[ca]": "Filtre d'importació HTML per al KSpread",
        "Name[cs]": "HTML importní filtr pro KSpread",
        "Name[eo]": "HTML Importfiltrilo por KSpread",
        "Name[es]": "Filtro de importación HTML para KSpread",
        "Name[fr]": "Filtre d'importation « HTML » pour KSpread",
        "Name[gl]": "Filtro para KSpread de importación de HTML",
        "Name[it]": "Filtro di importazione HTML per KSpread",
        "Name[ka]": "HTML -ის შემოტანის ფილტრი KSpread-სთვის",
        "Name[nl]": "HTML-importfilter voor KSpread",
        "Name[sl]": "HTML filter uvoza za KSpread",
        "Name[tr]": "KSpread için HTML İçe Aktarma Süzgeci",
        "Name[uk]": "Фільтр імпортування даних HTML для KSpread",
        "Name[x-test]": "xxHTML Import Filter for KSpreadxx",
        "ServiceTypes": [
            "Calligra/Filter"
        ]
    },
    "X-KDE-Export": "application/vnd.oasis.opendocument.spreadsheet",
    "X-KDE-Import": "text/html",
    "X-KDE-Weight": 50
}
