{
    "KPlugin": {
        "Authors": [
            {
                "Email": "raphael.langerhorst@kdemail.net",
                "Name": "Raphael Langerhorst",
                "Name[ca]": "Raphael Langerhorst",
                "Name[es]": "Raphael Langerhorst",
                "Name[gl]": "Raphael Langerhorst",
                "Name[ka]": "Raphael Langerhorst",
                "Name[nl]": "Raphael Langerhorst",
                "Name[sl]": "Raphael Langerhorst",
                "Name[tr]": "Raphael Langerhorst",
                "Name[uk]": "Raphael Langerhorst",
                "Name[x-test]": "xxRaphael Langerhorstxx"
            }
        ],
        "Category": "Tool",
        "Description": "Inserts a calendar into a cell range.",
        "Description[ca]": "Insereix un calendari a un interval de cel·la.",
        "Description[es]": "Inserta un calendario en un intervalo de celdas.",
        "Description[gl]": "Insire un calendario nunha serie de celas.",
        "Description[nl]": "Voeg een kalender in in een celreeks.",
        "Description[sl]": "Vstavi koledar v obseg celic.",
        "Description[tr]": "Bir hücre erimine bir takvim ekler.",
        "Description[uk]": "Вставляє календар у діапазон комірок.",
        "Description[x-test]": "xxInserts a calendar into a cell range.xx",
        "EnabledByDefault": true,
        "Icon": "x-office-calendar",
        "Id": "CalendarTool",
        "License": "GPL",
        "Name": "Calendar Tool",
        "Name[ca]": "Eina de calendari",
        "Name[es]": "Herramienta de calendario",
        "Name[gl]": "Ferramenta de calendario",
        "Name[ka]": "კალენდრს ხელსაწყო",
        "Name[nl]": "Agendahulpmiddel",
        "Name[sl]": "Orodje koledarja",
        "Name[tr]": "Takvim Aracı",
        "Name[uk]": "Інструмент календаря",
        "Name[x-test]": "xxCalendar Toolxx",
        "ServiceTypes": [
            "CalligraSheets/Plugin",
            "KPluginInfo"
        ],
        "Version": "28",
        "Website": "http://www.calligra.org/"
    },
    "X-CalligraSheets-InterfaceVersion": "0"
}
