{
    "KPlugin": {
        "Name": "Karbon XFig Import Filter",
        "Name[ca@valencia]": "Filtre d'importació XFig de Karbon",
        "Name[ca]": "Filtre d'importació XFig del Karbon",
        "Name[cs]": "Importní filtr Xfig pro Karbon",
        "Name[eo]": "Karbon XFig Importfiltrilo",
        "Name[es]": "Filtro de importación XFig de Karbon",
        "Name[fr]": "Filtre d'importation « XFig » de Karbon",
        "Name[gl]": "Filtro para Karbon de importación de XFig",
        "Name[it]": "Filtro di importazione XFig per Karbon",
        "Name[ka]": "Karbon XFig -ის შემოტანის ფილტრი",
        "Name[nl]": "Xfig-importfilter voor Karbon",
        "Name[sl]": "Karbon filter uvoza XFig",
        "Name[tr]": "Karbon XFig İçe Aktarma Süzgeci",
        "Name[uk]": "Фільтр імпортування XFig до Karbon",
        "Name[x-test]": "xxKarbon XFig Import Filterxx",
        "ServiceTypes": [
            "Calligra/Filter"
        ]
    },
    "X-KDE-Export": "application/vnd.oasis.opendocument.graphics",
    "X-KDE-Import": "image/x-xfig",
    "X-KDE-Weight": 1
}
