{
    "KPlugin": {
        "Authors": [
            {
                "Email": "calligra-devel@kde.org",
                "Name": "The KSpread Team",
                "Name[ca]": "L'equip del KSpread",
                "Name[es]": "El equipo de KSpread",
                "Name[gl]": "Equipo de KSpread",
                "Name[nl]": "Het team van KSpread",
                "Name[sl]": "Ekipa KSpread",
                "Name[tr]": "KSpread Takımı",
                "Name[uk]": "Команда KSpread",
                "Name[x-test]": "xxThe KSpread Teamxx"
            }
        ],
        "Category": "FunctionModule",
        "Description": "AVEDEV, AVERAGE, AVERAGEA, BETADIST, BETAINV, BINO, CHIDIST, COMBIN, COMBINA, CONFIDENCE, CORREL, COVAR, DEVSQ, EXPONDIST, FDIST, FINV, FISHER, FISHERINV, FREQUENCY, GAMMADIST, GAMMAINV, GAMMALN, GAUSS, GEOMEAN, HARMEAN, HYPGEOMDIST, INTERCEPT, INVBINO, KURT, KURTP, LARGE, LEGACYFDIST, LOGINV, LOGNORMDIST, MEDIAN, MODE, NEGBINOMDIST, NORMDIST, NORMINV, NORMSDIST, NORMSINV, PEARSON, PERMUT, PERMUTATIONA, PHI, POISSON, RANK, RSQ, SKEW, SKEWP, SLOPE, SMALL, STANDARDIZE, STDEV, STDEVA, STDEVP, STDEVPA, STEYX, SUM2XMY, SUMPRODUCT, SUMX2MY2, SUMX2PY2, SUMXMY2, TDIST, TREND, TRIMMEAN, TTEST, VAR, VARA, VARIANCE, VARP, VARPA, WEIBULL, ZTEST",
        "Description[ca]": "AVEDEV, AVERAGE, AVERAGEA, BETADIST, BETAINV, BINO, CHIDIST, COMBIN, COMBINA, CONFIDENCE, CORREL, COVAR, DEVSQ, EXPONDIST, FDIST, FINV, FISHER, FISHERINV, FREQUENCY, GAMMADIST, GAMMAINV, GAMMALN, GAUSS, GEOMEAN, HARMEAN, HYPGEOMDIST, INTERCEPT, INVBINO, KURT, KURTP, LARGE, LEGACYFDIST, LOGINV, LOGNORMDIST, MEDIAN, MODE, NEGBINOMDIST, NORMDIST, NORMINV, NORMSDIST, NORMSINV, PEARSON, PERMUT, PERMUTATIONA, PHI, POISSON, RANK, RSQ, SKEW, SKEWP, SLOPE, SMALL, STANDARDIZE, STDEV, STDEVA, STDEVP, STDEVPA, STEYX, SUM2XMY, SUMPRODUCT, SUMX2MY2, SUMX2PY2, SUMXMY2, TDIST, TREND, TRIMMEAN, TTEST, VAR, VARA, VARIANCE, VARP, VARPA, WEIBULL, ZTEST",
        "Description[es]": "AVEDEV, AVERAGE, AVERAGEA, BETADIST, BETAINV, BINO, CHIDIST, COMBIN, COMBINA, CONFIDENCE, CORREL, COVAR, DEVSQ, EXPONDIST, FDIST, FINV, FISHER, FISHERINV, FREQUENCY, GAMMADIST, GAMMAINV, GAMMALN, GAUSS, GEOMEAN, HARMEAN, HYPGEOMDIST, INTERCEPT, INVBINO, KURT, KURTP, LARGE, LEGACYFDIST, LOGINV, LOGNORMDIST, MEDIAN, MODE, NEGBINOMDIST, NORMDIST, NORMINV, NORMSDIST, NORMSINV, PEARSON, PERMUT, PERMUTATIONA, PHI, POISSON, RANK, RSQ, SKEW, SKEWP, SLOPE, SMALL, STANDARDIZE, STDEV, STDEVA, STDEVP, STDEVPA, STEYX, SUM2XMY, SUMPRODUCT, SUMX2MY2, SUMX2PY2, SUMXMY2, TDIST, TREND, TRIMMEAN, TTEST, VAR, VARA, VARIANCE, VARP, VARPA, WEIBULL, ZTEST",
        "Description[gl]": "AVEDEV, AVERAGE, AVERAGEA, BETADIST, BETAINV, BINO, CHIDIST, COMBIN, COMBINA, CONFIDENCE, CORREL, COVAR, DEVSQ, EXPONDIST, FDIST, FINV, FISHER, FISHERINV, FREQUENCY, GAMMADIST, GAMMAINV, GAMMALN, GAUSS, GEOMEAN, HARMEAN, HYPGEOMDIST, INTERCEPT, INVBINO, KURT, KURTP, LARGE, LEGACYFDIST, LOGINV, LOGNORMDIST, MEDIAN, MODE, NEGBINOMDIST, NORMDIST, NORMINV, NORMSDIST, NORMSINV, PEARSON, PERMUT, PERMUTATIONA, PHI, POISSON, RANK, RSQ, SKEW, SKEWP, SLOPE, SMALL, STANDARDIZE, STDEV, STDEVA, STDEVP, STDEVPA, STEYX, SUM2XMY, SUMPRODUCT, SUMX2MY2, SUMX2PY2, SUMXMY2, TDIST, TREND, TRIMMEAN, TTEST, VAR, VARA, VARIANCE, VARP, VARPA, WEIBULL, ZTEST.",
        "Description[nl]": "AVEDEV, AVERAGE, AVERAGEA, BETADIST, BETAINV, BINO, CHIDIST, COMBIN, COMBINA, CONFIDENCE, CORREL, COVAR, DEVSQ, EXPONDIST, FDIST, FINV, FISHER, FISHERINV, FREQUENCY, GAMMADIST, GAMMAINV, GAMMALN, GAUSS, GEOMEAN, HARMEAN, HYPGEOMDIST, INTERCEPT, INVBINO, KURT, KURTP, LARGE, LEGACYFDIST, LOGINV, LOGNORMDIST, MEDIAN, MODE, NEGBINOMDIST, NORMDIST, NORMINV, NORMSDIST, NORMSINV, PEARSON, PERMUT, PERMUTATIONA, PHI, POISSON, RANK, RSQ, SKEW, SKEWP, SLOPE, SMALL, STANDARDIZE, STDEV, STDEVA, STDEVP, STDEVPA, STEYX, SUM2XMY, SUMPRODUCT, SUMX2MY2, SUMX2PY2, SUMXMY2, TDIST, TREND, TRIMMEAN, TTEST, VAR, VARA, VARIANCE, VARP, VARPA, WEIBULL, ZTEST",
        "Description[sl]": "AVEDEV, AVERAGE, AVERAGEA, BETADIST, BETAINV, BINO, CHIDIST, COMBIN, COMBINA, CONFIDENCE, CORREL, COVAR, DEVSQ, EXPONDIST, FDIST, FINV, FISHER, FISHERINV, FREQUENCY, GAMMADIST, GAMMAINV, GAMMALN, GAUSS, GEOMEAN, HARMEAN, HYPGEOMDIST, INTERCEPT, INVBINO, KURT, KURTP, LARGE, LEGACYFDIST, LOGINV, LOGNORMDIST, MEDIAN, MODE, NEGBINOMDIST, NORMDIST, NORMINV, NORMSDIST, NORMSINV, PEARSON, PERMUT, PERMUTATIONA, PHI, POISSON, RANK, RSQ, SKEW, SKEWP, SLOPE, SMALL, STANDARDIZE, STDEV, STDEVA, STDEVP, STDEVPA, STEYX, SUM2XMY, SUMPRODUCT, SUMX2MY2, SUMX2PY2, SUMXMY2, TDIST, TREND, TRIMMEAN, TTEST, VAR, VARA, VARIANCE, VARP, VARPA, WEIBULL, ZTEST",
        "Description[tr]": "AVEDEV, AVERAGE, AVERAGEA, BETADIST, BETAINV, BINO, CHIDIST, COMBIN, COMBINA, CONFIDENCE, CORREL, COVAR, DEVSQ, EXPONDIST, FDIST, FINV, FISHER, FISHERINV, FREQUENCY, GAMMADIST, GAMMAINV, GAMMALN, GAUSS, GEOMEAN, HARMEAN, HYPGEOMDIST, INTERCEPT, INVBINO, KURT, KURTP, LARGE, LEGACYFDIST, LOGINV, LOGNORMDIST, MEDIAN, MODE, NEGBINOMDIST, NORMDIST, NORMINV, NORMSDIST, NORMSINV, PEARSON, PERMUT, PERMUTATIONA, PHI, POISSON, RANK, RSQ, SKEW, SKEWP, SLOPE, SMALL, STANDARDIZE, STDEV, STDEVA, STDEVP, STDEVPA, STEYX, SUM2XMY, SUMPRODUCT, SUMX2MY2, SUMX2PY2, SUMXMY2, TDIST, TREND, TRIMMEAN, TTEST, VAR, VARA, VARIANCE, VARP, VARPA, WEIBULL, ZTEST",
        "Description[uk]": "AVEDEV, AVERAGE, AVERAGEA, BETADIST, BETAINV, BINO, CHIDIST, COMBIN, COMBINA, CONFIDENCE, CORREL, COVAR, DEVSQ, EXPONDIST, FDIST, FINV, FISHER, FISHERINV, FREQUENCY, GAMMADIST, GAMMAINV, GAMMALN, GAUSS, GEOMEAN, HARMEAN, HYPGEOMDIST, INTERCEPT, INVBINO, KURT, KURTP, LARGE, LEGACYFDIST, LOGINV, LOGNORMDIST, MEDIAN, MODE, NEGBINOMDIST, NORMDIST, NORMINV, NORMSDIST, NORMSINV, PEARSON, PERMUT, PERMUTATIONA, PHI, POISSON, RANK, RSQ, SKEW, SKEWP, SLOPE, SMALL, STANDARDIZE, STDEV, STDEVA, STDEVP, STDEVPA, STEYX, SUM2XMY, SUMPRODUCT, SUMX2MY2, SUMX2PY2, SUMXMY2, TDIST, TREND, TRIMMEAN, TTEST, VAR, VARA, VARIANCE, VARP, VARPA, WEIBULL, ZTEST",
        "Description[x-test]": "xxAVEDEV, AVERAGE, AVERAGEA, BETADIST, BETAINV, BINO, CHIDIST, COMBIN, COMBINA, CONFIDENCE, CORREL, COVAR, DEVSQ, EXPONDIST, FDIST, FINV, FISHER, FISHERINV, FREQUENCY, GAMMADIST, GAMMAINV, GAMMALN, GAUSS, GEOMEAN, HARMEAN, HYPGEOMDIST, INTERCEPT, INVBINO, KURT, KURTP, LARGE, LEGACYFDIST, LOGINV, LOGNORMDIST, MEDIAN, MODE, NEGBINOMDIST, NORMDIST, NORMINV, NORMSDIST, NORMSINV, PEARSON, PERMUT, PERMUTATIONA, PHI, POISSON, RANK, RSQ, SKEW, SKEWP, SLOPE, SMALL, STANDARDIZE, STDEV, STDEVA, STDEVP, STDEVPA, STEYX, SUM2XMY, SUMPRODUCT, SUMX2MY2, SUMX2PY2, SUMXMY2, TDIST, TREND, TRIMMEAN, TTEST, VAR, VARA, VARIANCE, VARP, VARPA, WEIBULL, ZTESTxx",
        "EnabledByDefault": true,
        "Icon": "funct",
        "Id": "StatisticalModule",
        "License": "GPL",
        "Name": "Statistical Functions",
        "Name[ca]": "Funcions estadístiques",
        "Name[es]": "Funciones estadísticas",
        "Name[gl]": "Funcións estatísticas",
        "Name[nl]": "Statistische functies",
        "Name[sl]": "Statistične funkcije",
        "Name[tr]": "İstatistiksel İşlevler",
        "Name[uk]": "Статистичні функції",
        "Name[x-test]": "xxStatistical Functionsxx",
        "ServiceTypes": [
            "CalligraSheets/Plugin",
            "KPluginInfo"
        ],
        "Version": "1.0",
        "Website": "http://www.calligra.org/"
    },
    "X-CalligraSheets-InterfaceVersion": "0"
}
