{
    "KPlugin": {
        "Authors": [
            {
                "Email": "calligra-devel@kde.org",
                "Name": "The KSpread Team",
                "Name[ca]": "L'equip del KSpread",
                "Name[es]": "El equipo de KSpread",
                "Name[gl]": "Equipo de KSpread",
                "Name[nl]": "Het team van KSpread",
                "Name[sl]": "Ekipa KSpread",
                "Name[tr]": "KSpread Takımı",
                "Name[uk]": "Команда KSpread",
                "Name[x-test]": "xxThe KSpread Teamxx"
            }
        ],
        "Category": "FunctionModule",
        "Description": "ACCRINT, ACCRINTM, AMORDEGRC, AMORLINC, COMPOUND, CONTINUOUS, COUPNUM, CUMIPMT, CUMPRINC, DB, DDB, DISC, DOLLARDE, DOLLARFR, DURATION, DURATION_ADD, EFFECT, EFFECTIVE, EURO, EUROCONVERT, FV, FV_ANNUITY, INTRATE, IPMT, ISPMT, LEVEL_COUPON, MDURATION, MIRR, NOMINAL, NPER, NPV, ODDLPRICE, ODDLYIELD, PMT, PPMT, PRICEMAT, PV, PV_ANNUITY, RECEIVED, RRI, SLN, SYD, TBILLEQ, TBILLPRICE, TBILLYIELD, VDB, XIRR, XNPV, YIELDDISC, YIELDMAT, ZERO_COUPON",
        "Description[ca]": "ACCRINT, ACCRINTM, AMORDEGRC, AMORLINC, COMPOUND, CONTINUOUS, COUPNUM, CUMIPMT, CUMPRINC, DB, DDB, DISC, DOLLARDE, DOLLARFR, DURATION, DURATION_ADD, EFFECT, EFFECTIVE, EURO, EUROCONVERT, FV, FV_ANNUITY, INTRATE, IPMT, ISPMT, LEVEL_COUPON, MDURATION, MIRR, NOMINAL, NPER, NPV, ODDLPRICE, ODDLYIELD, PMT, PPMT, PRICEMAT, PV, PV_ANNUITY, RECEIVED, RRI, SLN, SYD, TBILLEQ, TBILLPRICE, TBILLYIELD, VDB, XIRR, XNPV, YIELDDISC, YIELDMAT, ZERO_COUPON",
        "Description[es]": "ACCRINT, ACCRINTM, AMORDEGRC, AMORLINC, COMPOUND, CONTINUOUS, COUPNUM, CUMIPMT, CUMPRINC, DB, DDB, DISC, DOLLARDE, DOLLARFR, DURATION, DURATION_ADD, EFFECT, EFFECTIVE, EURO, EUROCONVERT, FV, FV_ANNUITY, INTRATE, IPMT, ISPMT, LEVEL_COUPON, MDURATION, MIRR, NOMINAL, NPER, NPV, ODDLPRICE, ODDLYIELD, PMT, PPMT, PRICEMAT, PV, PV_ANNUITY, RECEIVED, RRI, SLN, SYD, TBILLEQ, TBILLPRICE, TBILLYIELD, VDB, XIRR, XNPV, YIELDDISC, YIELDMAT, ZERO_COUPON",
        "Description[gl]": "ACCRINT, ACCRINTM, AMORDEGRC, AMORLINC, COMPOUND, CONTINUOUS, COUPNUM, CUMIPMT, CUMPRINC, DB, DDB, DISC, DOLLARDE, DOLLARFR, DURATION, DURATION_ADD, EFFECT, EFFECTIVE, EURO, EUROCONVERT, FV, FV_ANNUITY, INTRATE, IPMT, ISPMT, LEVEL_COUPON, MDURATION, MIRR, NOMINAL, NPER, NPV, ODDLPRICE, ODDLYIELD, PMT, PPMT, PRICEMAT, PV, PV_ANNUITY, RECEIVED, RRI, SLN, SYD, TBILLEQ, TBILLPRICE, TBILLYIELD, VDB, XIRR, XNPV, YIELDDISC, YIELDMAT, ZERO_COUPON.",
        "Description[nl]": "ACCRINT, ACCRINTM, AMORDEGRC, AMORLINC, COMPOUND, CONTINUOUS, COUPNUM, CUMIPMT, CUMPRINC, DB, DDB, DISC, DOLLARDE, DOLLARFR, DURATION, DURATION_ADD, EFFECT, EFFECTIVE, EURO, EUROCONVERT, FV, FV_ANNUITY, INTRATE, IPMT, ISPMT, LEVEL_COUPON, MDURATION, MIRR, NOMINAL, NPER, NPV, ODDLPRICE, ODDLYIELD, PMT, PPMT, PRICEMAT, PV, PV_ANNUITY, RECEIVED, RRI, SLN, SYD, TBILLEQ, TBILLPRICE, TBILLYIELD, VDB, XIRR, XNPV, YIELDDISC, YIELDMAT, ZERO_COUPON",
        "Description[sl]": "ACCRINT, ACCRINTM, AMORDEGRC, AMORLINC, COMPOUND, CONTINUOUS, COUPNUM, CUMIPMT, CUMPRINC, DB, DDB, DISC, DOLLARDE, DOLLARFR, DURATION, DURATION_ADD, EFFECT, EFFECTIVE, EURO, EUROCONVERT, FV, FV_ANNUITY, INTRATE, IPMT, ISPMT, LEVEL_COUPON, MDURATION, MIRR, NOMINAL, NPER, NPV, ODDLPRICE, ODDLYIELD, PMT, PPMT, PRICEMAT, PV, PV_ANNUITY, RECEIVED, RRI, SLN, SYD, TBILLEQ, TBILLPRICE, TBILLYIELD, VDB, XIRR, XNPV, YIELDDISC, YIELDMAT, ZERO_COUPON",
        "Description[tr]": "ACCRINT, ACCRINTM, AMORDEGRC, AMORLINC, COMPOUND, CONTINUOUS, COUPNUM, CUMIPMT, CUMPRINC, DB, DDB, DISC, DOLLARDE, DOLLARFR, DURATION, DURATION_ADD, EFFECT, EFFECTIVE, EURO, EUROCONVERT, FV, FV_ANNUITY, INTRATE, IPMT, ISPMT, LEVEL_COUPON, MDURATION, MIRR, NOMINAL, NPER, NPV, ODDLPRICE, ODDLYIELD, PMT, PPMT, PRICEMAT, PV, PV_ANNUITY, RECEIVED, RRI, SLN, SYD, TBILLEQ, TBILLPRICE, TBILLYIELD, VDB, XIRR, XNPV, YIELDDISC, YIELDMAT, ZERO_COUPON",
        "Description[uk]": "ACCRINT, ACCRINTM, AMORDEGRC, AMORLINC, COMPOUND, CONTINUOUS, COUPNUM, CUMIPMT, CUMPRINC, DB, DDB, DISC, DOLLARDE, DOLLARFR, DURATION, DURATION_ADD, EFFECT, EFFECTIVE, EURO, EUROCONVERT, FV, FV_ANNUITY, INTRATE, IPMT, ISPMT, LEVEL_COUPON, MDURATION, MIRR, NOMINAL, NPER, NPV, ODDLPRICE, ODDLYIELD, PMT, PPMT, PRICEMAT, PV, PV_ANNUITY, RECEIVED, RRI, SLN, SYD, TBILLEQ, TBILLPRICE, TBILLYIELD, VDB, XIRR, XNPV, YIELDDISC, YIELDMAT, ZERO_COUPON",
        "Description[x-test]": "xxACCRINT, ACCRINTM, AMORDEGRC, AMORLINC, COMPOUND, CONTINUOUS, COUPNUM, CUMIPMT, CUMPRINC, DB, DDB, DISC, DOLLARDE, DOLLARFR, DURATION, DURATION_ADD, EFFECT, EFFECTIVE, EURO, EUROCONVERT, FV, FV_ANNUITY, INTRATE, IPMT, ISPMT, LEVEL_COUPON, MDURATION, MIRR, NOMINAL, NPER, NPV, ODDLPRICE, ODDLYIELD, PMT, PPMT, PRICEMAT, PV, PV_ANNUITY, RECEIVED, RRI, SLN, SYD, TBILLEQ, TBILLPRICE, TBILLYIELD, VDB, XIRR, XNPV, YIELDDISC, YIELDMAT, ZERO_COUPONxx",
        "EnabledByDefault": true,
        "Icon": "funct",
        "Id": "FinancialModule",
        "License": "GPL",
        "Name": "Financial Functions",
        "Name[ca]": "Funcions financeres",
        "Name[es]": "Funciones financieras",
        "Name[gl]": "Funcións financeiras",
        "Name[nl]": "Financiële functies",
        "Name[sl]": "Finančne funkcije",
        "Name[tr]": "Finansal İşlevler",
        "Name[uk]": "Фінансові функції",
        "Name[x-test]": "xxFinancial Functionsxx",
        "ServiceTypes": [
            "CalligraSheets/Plugin",
            "KPluginInfo"
        ],
        "Version": "1.0",
        "Website": "http://www.calligra.org/"
    },
    "X-CalligraSheets-InterfaceVersion": "0"
}
