{
    "KPlugin": {
        "Id": "threedshape",
        "Name": "3D Scene Shape",
        "Name[ca]": "Forma d'escena 3D",
        "Name[es]": "Forma de escena 3D",
        "Name[gl]": "Forma de escena en 3D",
        "Name[ka]": "3D სცენის ფორმა",
        "Name[nl]": "Vorm van 3D-scène",
        "Name[sl]": "Oblika 3D scene",
        "Name[tr]": "3B Sahne Şekli",
        "Name[uk]": "Форма просторової сцени",
        "Name[x-test]": "xx3D Scene Shapexx",
        "ServiceTypes": [
            "Calligra/Shape"
        ]
    },
    "X-Flake-MinVersion": "28",
    "X-Flake-PluginVersion": "28"
}
